Case Study 1 (Bike-Share)
…
bike_prepared_2 %>%
  group_by(start_hour) %>%
  summarise(number_of_riders = n()) %>%
  arrange(number_of_riders)

## # A tibble: 24 x 2
##    start_hour number_of_riders
##         <int>            <int>
##  1          4            10563
##  2          3            10943
##  3          2            20167
##  4          5            31624
##  5          1            35688
##  6          0            56073
##  7         23            88261
##  8          6            92269
##  9         22           118440
## 10         21           146675
## # ... with 14 more rows
…
